%YAML 1.1
%TAG !u! tag:unity3d.com,2011:
--- !u!1045 &1
EditorBuildSettings:
  m_ObjectHideFlags: 0
  serializedVersion: 2
  m_Scenes:
  - enabled: 1
    path: Assets/Scenes/MenuPrincipal.unity
    guid: a1a97eeef2991b446a0e8eba241777b8
  - enabled: 1
    path: Assets/Scenes/TestMechanics.unity
    guid: de4efc1919ca75040ade528b18199586
  - enabled: 0
    path: Assets/Scenes/WinScreen.unity
    guid: b1837ec6b85a9bf45b96121b6198a842
  - enabled: 0
    path: 
    guid: 00000000000000000000000000000000
  - enabled: 1
    path: Assets/Scenes/WinScene.unity
    guid: 70b5879e81c5b25448f307db727db861
  m_configObjects: {}
